:1000000031FF20DB21E640CAFF00CD4500CD93073C
:10001000F331FF20CD45003E04CD2A02CDEC00C3D4
:1000200017000000F331FF20DB083EFDD3222E0530
:10003000C3730000F5E5DB082A0120E93E103020FB
:1000400007781F47C9AF320020216D012201203EF1
:100050004D30FB3EFED3203EFDD322DB23F601D301
:10006000233E0C32AD20AF32A2203A0C20E60832FB
:100070000C20C9CDEC0020E620CA73002DCA100068
:10008000DB08FE04C27300CD450032B62031FF20EC
:10009000AF320C2032A22021000022B42022032003
:1000A0003E4D30FBCD1103CDEC003AA220E680CAD4
:1000B000A4003A0720FE02C210003A0920FE0B3EBF
:1000C000D0D26E073A092021D400075F1600195ECE
:1000D0002356EBE93F0779071607C0053F078E0255
:1000E0003F07E5077F073F073F073F07DB21E64064
:1000F0003AB620CAFC00F60132B620C9E601C83182
:10010000FF2021BC01CD4C00D32306FFCDFD03CD44
:100110009307320B2032002021000022A920CD4B72
:1001200005CD07042119200E807ECD2A02573A0101
:1001300020FE12CA4A017AFE47CA64010602E6F8A6
:10014000EE30CA47010614CDFD03230DC229012A52
:10015000A9202322A9203E04BDC21E013A0120FE8F
:1001600012C21E01CD450032B620C38D00FE08210B
:100170001201CAB901FE13C282013EFF320020C340
:10018000BC016FE6FEFE10C29101AF320020C3BC7D
:10019000013E04BDCA51023AA220E680C210007D91
:1001A000320720329F20111920FE01CAB601110921
:1001B00020FE02C2100021C001220120E1F1FBC992
:1001C0004F32082032A020FE81D21000060121D437
:1001D00001C3B901121ACD0C020DCAE10113C3BC4F
:1001E0000121E701C3B901219F2096C2100021F42B
:1001F00001C3B90121A02096C210002A9F20220528
:10020000203E8032A220216D01C3B901E56F78EE56
:100210000147C21D027D219F208E772E007D21A0E7
:10022000208E772E00DA1502E1C9F5E52E082DC5DE
:10023000CC0704C120E610CA2E023A00203CCA2E88
:1002400002E1F1D3083A0C20E608C83EFF32002054
:10025000C931FF20CD4500CD4505C38D00211720B4
:10026000360123561414AF329F2032A02006012BF2
:100270007ECD0C027ECD2A022315C27002219F2062
:10028000CD8402233E1ECDF4037ECD2A02C9CDF3D8
:1002900006CD9D02CD1D03CD0704C33F072AA9202B
:1002A000EB21AE2036E97AFE083EFED26E077AFEDA
:1002B000043F7B175F7A17E60757FE04DAC1023660
:1002C000F93A0B20FE01CAD102DADD023EF8C36E14
:1002D000077EE6F7773E042AA520C3E2023E082AFD
:1002E000A32032B3204F3AAD20A1CAEF026B62CDFA
:1002F000F702EB22A720C9CD1103E521B320DB21B2
:10030000A63EF7C26E073AAD202FB62F32AD20E1E0
:10031000C9E5DB21E60C21AD20B677E1C93EF83214
:10032000B020CDF7022AA7207CE603677AE60357C0
:100330007D936F7C9A67D25F033AB0203C32B02045
:100340003EE0CA6E077D2F6F7C2F672323233AAED2
:1003500020F60432AE20CD3404CD0704C37903AFB8
:10036000BCC26E03BDCA39033E04BDD279032B2B38
:100370002BCD3404060FCD09043EBED3243EC0D39A
:10038000253ECED3203AAE20F680E6FA32AE2047A4
:10039000DB22E60178D322061EC4FD03CD6D04FEE8
:1003A00009F20105CDA2040E04219B20CDD2043A0E
:1003B0009D20219B202FBEC2DA033A9E202F23BE10
:1003C000C2DA03CD19053AA720BBC222033AA820FE
:1003D000BAC222032E08CDEB03C92E10CDEB0321A8
:1003E000B02034C279033EE0C36E07DB23ADD323D4
:1003F000ADD323C9E6FF00003DC2F403C93E60CD82
:10040000F40305C2FD03C9062BDB21E610C03AAE9A
:1004100020EE05D322EE01D322E56748DB216FDB16
:1004200021ADE602C21B040DC21F043AAE20F60144
:10043000D322E1C93E5FD3243EC0D3253ECED32094
:100440003AAE20E67E32AE20D322062DCDFD03CD7E
:100450006D04FE04FA0D05FE09F20005CDA204CDDF
:10046000F7022BAFBCC24F04BDC24F04C9160C1E0D
:10047000000605DB21E690CA7304E6103EDFC26E7B
:1004800007CDC104DB21E680C2920405CA6D04C316
:10049000810420E680CA99041C15C281043E1D30E7
:1004A0007BC9F53AAE20F601D32200E6FED3221E28
:1004B00003CDC104DB21E690C2AF041DC2B104F13B
:1004C000C93E1D30DB21E610C27C0420E640CAC4D0
:1004D00004C93E1B30FB76E680CAD504FB76FB766A
:1004E000FB76FB76FB76FB76FB76FB7670FB760D78
:1004F000CAFB04FB7623FB76C3E2043E0D30FBC946
:10050000F121FF03229B20CD1905C32203F1062808
:10051000CDFD03CD0704C379032A9B20EB21A32043
:100520003A0B203DFA2A0521A520732372C92AA778
:1005300020229F201119200E8006011ACD0C0213D3
:100540000DC8C33B053E10CD2A02C93EF832AF208C
:10055000CD9D023AAF20E601C263053A0A20E601CA
:10056000CA6B053AAE20E6DF32AE20CD1D033EA2B7
:10057000CDF4030E82211920CDD204CD2E052A9F61
:10058000203A9920BDC28D053A9A20BCC82E02CDD2
:10059000EB03CD07042A9B2023CD19053A0C20E656
:1005A00010C2B30521AF20343E0132B420C2500541
:1005B000C3BB053E80321820CD5D023EEFC36E07FF
:1005C000CDF306AF32A220CD4505D5CD1103CDEC3C
:1005D000003AA220E680CACB053A0720FE01C210ED
:1005E00000D1CD9D02E5D53A0820D680CAFA054F44
:1005F000219820AF772B0CC2F405CD2E052A9F2021
:10060000229920210000221320221520210080227F
:1006100017203AAE20D322DB21E6013EF5C26E0759
:10062000D1E1CD1D03F33E0FCDF403211320068647
:10063000168A3AAE20F6025FE6BFD3220E083EFFCE
:10064000307E0F77F67F300DCA5B0605C26A067BE7
:10065000D322003E7F300000C33E0615CA6E06233B
:100660003E7F0E08300500C33E0604C353063AAE73
:1006700020D3223E0D30FBCD07043EFF32AF20CD0C
:100680007E052A0720229F20CD34052A05202299A5
:1006900020CD7E053A0820CDE806CDD606DAC30582
:1006A0003AA920E6033A0A20CABF06FE00FABF06AE
:1006B00021000022072022AB20220520C3E205E60C
:1006C00001CAD006CDF306CD4B05CDD606DAC70656
:1006D000CD0704C33F072AA9202322A9202AAB2043
:1006E0001180FF1922AB20C92103208677237ECEFB
:1006F0000077C92A0F202B22AB202A11203A0A208A
:10070000FE00FA0A075D541919193EF8A43EC9C241
:100710006E0722A920C9CDF306CD4B05CDD606D252
:1007200030073E80321820CDE806CD5D02C31907A0
:10073000CD07047DC681321820CDE806CD5D0221AB
:10074000020A2207203E403209203AB420320A2011
:10075000AF3211203AB5203212202A0320220F2076
:100760000605CDFD03210820CD6302C38D0032B400
:10077000203E8032B52031FF20CD4900C33F073AEB
:100780000A20E680CA3F073AAD20E60C0F32B520BA
:10079000C33F073E01D323AF32B42006C8CDFD03CB
:1007A000210000229F20EBCD37053E08BAC2A707E3
:1007B0002A9F202CC2DE0724C2DE07211020752CC0
:1007C0003EF0BDC2BE072D7EBDC2DE07FE10C2C612
:1007D00007CD53003E05D323AF676FC3E10721FF69
:1007E0008022B420C9CD9307C33F07BEB5000000E7
:1007F00000000000000000000000000000000000F9
:00000001FF
