ROM:0000 ;
ROM:0000 ; +-------------------------------------------------------------------------+
ROM:0000 ; |      This file was generated by The Interactive Disassembler (IDA)      |
ROM:0000 ; |           Copyright (c) 2018 Hex-Rays, <support@hex-rays.com>           |
ROM:0000 ; |                      License info: 48-BDFF-7F04-E8                      |
ROM:0000 ; |                      Mark Blair, personal license                       |
ROM:0000 ; +-------------------------------------------------------------------------+
ROM:0000 ;
ROM:0000 ; Input SHA256 : 9862536D21C1996A7F23FE2DDB3DCDD96095A16C7C0BB9D714DEC1AE9602970E
ROM:0000 ; Input MD5    : A407FBB5AAA4823A92DD2BC374D1D3AE
ROM:0000 ; Input CRC32  : B25A9978
ROM:0000
ROM:0000 ; File Name   : /Users/mblair/TU58/tu58-firmware/23-389E2-00/23-389E2-00.bin
ROM:0000 ; Format      : Binary file
ROM:0000 ; Base Address: 0000h Range: 0000h - 0800h Loaded length: 0800h
ROM:0000 ;
ROM:0000 ; Disassembly of TU58 ROM 23-389E2 by Mark J. Blair, made with reference
ROM:0000 ; to another disassembly by Joseph Lang <joe.lang.0000@gmail.com>
ROM:0000 ;
ROM:0000 ; ---------------------------------------------------------------------------
ROM:0000 ;
ROM:0000 ; TU58 tape drive controller hardware notes based on examination of schematic
ROM:0000 ; diagram:
ROM:0000 ;
ROM:0000 ; CPU crystal is 4.9152 MHz
ROM:0000 ;
ROM:0000 ; Interrupts:
ROM:0000 ;
ROM:0000 ;     INTA    Not used
ROM:0000 ;     TRAP    UART framing error
ROM:0000 ;     RST5.5  UART transmit buffer empty
ROM:0000 ;     RST6.5  UART data received
ROM:0000 ;     RST7.5  RD_STROBE
ROM:0000 ;
ROM:0000 ; Memory map (not including aliased regions):
ROM:0000 ;
ROM:0000 ;     ROM     2k x 8  at 0x0000-0x07FF
ROM:0000 ;     RAM     256 x 8 at 0x2000-0x20FF (part of 8155)
ROM:0000 ;
ROM:0000 ; I/O ports (not including aliased port numbers):
ROM:0000 ;
ROM:0000 ;     0x08    UART
ROM:0000 ;     0x20    8155 CSR
ROM:0000 ;     0x21    8155 PA
ROM:0000 ;     0x22    8155 PB
ROM:0000 ;     0x23    8155 PC
ROM:0000 ;     0x24    8155 Timer L
ROM:0000 ;     0x25    8155 Timer H
ROM:0000 ;
ROM:0000 ; 8155 port signals:
ROM:0000 ;
ROM:0000 ;     Port A configured as input by firmware
ROM:0000 ;     PA.0        WRT_PERMIT_L
ROM:0000 ;     PA.1        VEL_TP_H
ROM:0000 ;     PA.2        B_CART_L
ROM:0000 ;     PA.3        A_CART_L
ROM:0000 ;     PA.4        RUN_TP_L
ROM:0000 ;     PA.5        OE
ROM:0000 ;     PA.6        SW_BOOT_L
ROM:0000 ;     PA.7        MARK_H
ROM:0000 ;
ROM:0000 ;     Port B configured as output by firmware
ROM:0000 ;     PB.0        RUN_L
ROM:0000 ;     PB.1        WRT_ENB_H
ROM:0000 ;     PB.2        REVERSE_H
ROM:0000 ;     PB.3        SEL_DRV_B_L
ROM:0000 ;     PB.4        SEL_TRK_0_L
ROM:0000 ;     PB.5        GAIN_REDUCE_L
ROM:0000 ;     PB.6        ERASE_ENA_L
ROM:0000 ;     PB.7        30IPS_H
ROM:0000 ;
ROM:0000 ;     Port C configured as output by firmware (ALT 2 mode)
ROM:0000 ;     PC.0        BOOT_L
ROM:0000 ;     PC.1        TP3
ROM:0000 ;     PC.2        TP1
ROM:0000 ;     PC.3        LED
ROM:0000 ;     PC.4        TP2
ROM:0000 ;     PC.5        not used
ROM:0000 ;
ROM:0000 ; UART:
ROM:0000 ;
ROM:0000 ;     Strapped for 8 bit data, no parity, 1 stop bit.
ROM:0000 ;     Baud rate selectable by wire jumper to clock divider; max 38400
ROM:0000 ;     baud.
ROM:0000 ;
ROM:0000
ROM:0000 ; Processor       : 8085 []
ROM:0000 ; Target assembler: Table Driven Assembler (TASM) by Speech Technology Inc.
ROM:0000
ROM:0000 ; ===========================================================================
ROM:0000
ROM:0000 ; Segment type: Pure code
ROM:0000
ROM:0000 ; =============== S U B R O U T I N E =======================================
ROM:0000
ROM:0000
ROM:0000 RESET:
ROM:0000                 lxi     sp, STACK_TOP
ROM:0003                 in      IO_8155_PA      ; Input port
ROM:0005                 ani     SW_BOOT_L       ; 8155 Input Port A Bit Definitions
ROM:0007                 jz      loc_103
ROM:000A                 call    sub_45
ROM:000D                 call    sub_79A
ROM:000D ; End of function RESET
ROM:000D
ROM:0010 ; START OF FUNCTION CHUNK FOR sub_552
ROM:0010
ROM:0010 loc_10:                                 ; CODE XREF: ROM:0081↓j
ROM:0010                                         ; sub_552-497↓j ...
ROM:0010                 di
ROM:0011                 lxi     sp, STACK_TOP
ROM:0014                 call    sub_49
ROM:0017
ROM:0017 loc_17:                                 ; CODE XREF: sub_552-533↓j
ROM:0017                 mvi     a, 4
ROM:0019                 call    sub_231
ROM:001C                 call    sub_F0
ROM:001F                 jmp     loc_17
ROM:001F ; END OF FUNCTION CHUNK FOR sub_552
ROM:001F ; ---------------------------------------------------------------------------
ROM:0022                 .db 0
ROM:0023                 .db 0
ROM:0024 ; ---------------------------------------------------------------------------
ROM:0024
ROM:0024 TRAP:                                   ; UART framing error interrupt (line break detected)
ROM:0024                 di
ROM:0025                 lxi     sp, STACK_TOP
ROM:0028                 in      IO_UART
ROM:002A                 mvi     a, RUN_L|REVERSE_H|SEL_DRV_B_L|SEL_TRK_0_L|GAIN_REDUCE_L|ERASE_ENA_L|IPS30_L ; 8155 Output Port B Bit Definitions
ROM:002C
ROM:002C RST5p5:                                 ; UART transmit buffer empty interrupt
ROM:002C                 out     IO_8155_PB
ROM:002E                 mvi     l, 5
ROM:0030                 jmp     loc_77
ROM:0033 ; ---------------------------------------------------------------------------
ROM:0033                 nop
ROM:0034
ROM:0034 RST6p5:                                 ; UART data received interrupt
ROM:0034                 push    psw
ROM:0035                 push    h
ROM:0036                 in      IO_UART
ROM:0038                 lhld    UART_STATE      ; Pointer to current UART state machine handler
ROM:003B                 pchl
ROM:003C ; ---------------------------------------------------------------------------
ROM:003C
ROM:003C RST7p5:                                 ; RD_STROBE interrupt
ROM:003C                 mvi     a, 10h
ROM:003E                 sim
ROM:003F                 rim
ROM:0040                 rlc
ROM:0041                 mov     a, b
ROM:0042                 rar
ROM:0043                 mov     b, a
ROM:0044                 ret
ROM:0045
ROM:0045 ; =============== S U B R O U T I N E =======================================
ROM:0045
ROM:0045
ROM:0045 sub_45:                                 ; CODE XREF: RESET+A↑p
ROM:0045                 xra     a
ROM:0046                 sta     RSP_PKT_BUF.SWITCHES ; RSP command/response packet buffer
ROM:0046 ; End of function sub_45
ROM:0046
ROM:0049
ROM:0049 ; =============== S U B R O U T I N E =======================================
ROM:0049
ROM:0049
ROM:0049 sub_49:                                 ; CODE XREF: sub_552-53E↑p
ROM:0049                                         ; ROM:008B↓p ...
ROM:0049                 xra     a
ROM:004A                 sta     XOFF_FLAG
ROM:004A ; End of function sub_49
ROM:004A
ROM:004D
ROM:004D ; =============== S U B R O U T I N E =======================================
ROM:004D
ROM:004D
ROM:004D sub_4D:                                 ; CODE XREF: sub_552:RSP_INIT↓p
ROM:004D                 lxi     h, loc_174
ROM:004D ; End of function sub_4D
ROM:004D
ROM:0050
ROM:0050 ; =============== S U B R O U T I N E =======================================
ROM:0050
ROM:0050
ROM:0050 sub_50:                                 ; CODE XREF: sub_F0+19↓p
ROM:0050                 shld    UART_STATE      ; Pointer to current UART state machine handler
ROM:0053                 mvi     a, 4Dh ; 'M'
ROM:0055                 sim
ROM:0056                 ei
ROM:0056 ; End of function sub_50
ROM:0056
ROM:0057
ROM:0057 ; =============== S U B R O U T I N E =======================================
ROM:0057
ROM:0057
ROM:0057 sub_57:                                 ; CODE XREF: sub_79A+3E↓p
ROM:0057                 mvi     a, PB|PC_ALT2|IEA|IEB|TM_START ; 8155 CSR Register Bit Definitions
ROM:0059                 out     IO_8155_CSR
ROM:005B                 mvi     a, RUN_L|REVERSE_H|SEL_DRV_B_L|SEL_TRK_0_L|GAIN_REDUCE_L|ERASE_ENA_L|IPS30_L ; 8155 Output Port B Bit Definitions
ROM:005D                 out     IO_8155_PB      ; Output port
ROM:005F                 in      IO_8155_PC      ; Output port
ROM:0061                 ori     BOOT_L          ; 8155 Output Port C Bit Definitions (ALT 2 Mode)
ROM:0063                 out     IO_8155_PC      ; Output port
ROM:0065                 mvi     a, 0Ch
ROM:0067                 sta     byte_20AD
ROM:006A                 xra     a
ROM:006B                 sta     byte_20A2
ROM:006E                 lda     RSP_PKT_BUF.SWITCHES ; RSP command/response packet buffer
ROM:0071                 ani     8
ROM:0073                 sta     RSP_PKT_BUF.SWITCHES ; RSP command/response packet buffer
ROM:0076                 ret
ROM:0076 ; End of function sub_57
ROM:0076
ROM:0077 ; ---------------------------------------------------------------------------
ROM:0077
ROM:0077 loc_77:                                 ; CODE XREF: ROM:0030↑j
ROM:0077                                         ; ROM:007D↓j ...
ROM:0077                 call    sub_F0
ROM:007A                 rim
ROM:007B                 ani     20h
ROM:007D                 jz      loc_77
ROM:0080                 dcr     l
ROM:0081                 jz      loc_10
ROM:0084                 in      IO_UART
ROM:0086                 cpi     4
ROM:0088                 jnz     loc_77
ROM:008B                 call    sub_49
ROM:008E                 sta     byte_20B6
ROM:0091 ; START OF FUNCTION CHUNK FOR sub_552
ROM:0091 ;   ADDITIONAL PARENT FUNCTION sub_F0
ROM:0091
ROM:0091 loc_91:                                 ; CODE XREF: sub_F0+81↓j
ROM:0091                                         ; ROM:0261↓j ...
ROM:0091                 lxi     sp, STACK_TOP
ROM:0094                 xra     a
ROM:0095                 sta     RSP_PKT_BUF.SWITCHES ; RSP command/response packet buffer
ROM:0098                 sta     byte_20A2
ROM:009B                 lxi     h, 0
ROM:009E                 shld    word_20B4
ROM:00A1                 shld    UART_XFR_COUNT  ; UART state machine transferred count
ROM:00A4                 mvi     a, 4Dh ; 'M'
ROM:00A6                 sim
ROM:00A7                 ei
ROM:00A8
ROM:00A8 loc_A8:                                 ; CODE XREF: sub_552-49F↓j
ROM:00A8                 call    sub_318
ROM:00AB                 call    sub_F0
ROM:00AE                 lda     byte_20A2
ROM:00B1                 ani     80h
ROM:00B3                 jz      loc_A8
ROM:00B6                 lda     RSP_PKT_BUF.FLAG ; RSP command/response packet buffer
ROM:00B9                 cpi     2
ROM:00BB                 jnz     loc_10
ROM:00BE                 lda     RSP_PKT_BUF.OP_DATA ; RSP command/response packet buffer
ROM:00C1                 cpi     0Bh
ROM:00C3                 mvi     a, 0D0h
ROM:00C5                 jnc     loc_775
ROM:00C8                 lda     RSP_PKT_BUF.OP_DATA ; RSP command/response packet buffer
ROM:00CB                 lxi     h, RSP_OP_TBL   ; RSP Opcode Vector Table
ROM:00CE                 rlc
ROM:00CF                 mov     e, a
ROM:00D0                 mvi     d, 0
ROM:00D2                 dad     d
ROM:00D3                 mov     e, m
ROM:00D4                 inx     h
ROM:00D5                 mov     d, m
ROM:00D6                 xchg
ROM:00D7                 pchl
ROM:00D7 ; END OF FUNCTION CHUNK FOR sub_552
ROM:00D7 ; ---------------------------------------------------------------------------
ROM:00D8 RSP_OP_TBL:     .dw RSP_NOP             ; DATA XREF: sub_552-487↑o
ROM:00D8                                         ; RSP Opcode Vector Table
ROM:00DA                 .dw RSP_INIT            ; RSP INIT Opcode
ROM:00DC                 .dw RSP_READ            ; RSP Read Opcode
ROM:00DE                 .dw RSP_WRITE           ; RSP Write Opcode
ROM:00E0                 .dw RSP_NOP             ; RSP NOP/Reserved Opcodes
ROM:00E2                 .dw RSP_POS             ; RSP Position Opcode
ROM:00E4                 .dw RSP_NOP             ; RSP NOP/Reserved Opcodes
ROM:00E6                 .dw RSP_DIAG            ; RSP Diagnose Opcode
ROM:00E8                 .dw RSP_GETSTAT         ; RSP Get Status Opcode
ROM:00EA                 .dw RSP_NOP             ; RSP NOP/Reserved Opcodes
ROM:00EC                 .dw RSP_NOP             ; RSP NOP/Reserved Opcodes
ROM:00EE                 .dw RSP_NOP             ; RSP NOP/Reserved Opcodes
ROM:00F0
ROM:00F0 ; =============== S U B R O U T I N E =======================================
ROM:00F0
ROM:00F0
ROM:00F0 sub_F0:                                 ; CODE XREF: sub_552-536↑p
ROM:00F0                                         ; ROM:loc_77↑p ...
ROM:00F0
ROM:00F0 ; FUNCTION CHUNK AT ROM:0091 SIZE 00000047 BYTES
ROM:00F0
ROM:00F0                 in      IO_8155_PA      ; Input port
ROM:00F2                 ani     SW_BOOT_L       ; 8155 Input Port A Bit Definitions
ROM:00F4                 lda     byte_20B6
ROM:00F7                 jz      loc_100
ROM:00FA                 ori     1
ROM:00FC                 sta     byte_20B6
ROM:00FF                 ret
ROM:0100 ; ---------------------------------------------------------------------------
ROM:0100
ROM:0100 loc_100:                                ; CODE XREF: sub_F0+7↑j
ROM:0100                 ani     1
ROM:0102                 rz
ROM:0103
ROM:0103 loc_103:                                ; CODE XREF: RESET+7↑j
ROM:0103                 lxi     sp, STACK_TOP
ROM:0106                 lxi     h, 1C3h
ROM:0109                 call    sub_50
ROM:010C                 xra     a
ROM:010D                 sta     RSP_PKT_BUF.SWITCHES ; RSP command/response packet buffer
ROM:0110                 out     IO_8155_PC      ; Output port
ROM:0112                 mvi     b, 0FFh
ROM:0114                 call    sub_404
ROM:0117                 call    sub_79A
ROM:011A                 sta     RSP_PKT_BUF.UNIT ; RSP command/response packet buffer
ROM:011D                 sta     XOFF_FLAG
ROM:0120                 lxi     h, 0
ROM:0123                 shld    word_20A9
ROM:0126
ROM:0126 loc_126:                                ; CODE XREF: sub_F0+70↓j
ROM:0126                                         ; sub_F0+78↓j
ROM:0126                 call    sub_552
ROM:0129                 call    sub_40E
ROM:012C                 lxi     h,  RSP_PKT_BUF.DATA13+4 ; RSP command/response packet buffer
ROM:012F                 mvi     c, 80h
ROM:0131
ROM:0131 loc_131:                                ; CODE XREF: sub_F0+63↓j
ROM:0131                 mov     a, m
ROM:0132                 call    sub_231
ROM:0135                 lda     UART_STATE      ; Pointer to current UART state machine handler
ROM:0138                 cpi     1Ah
ROM:013A                 jz      loc_151
ROM:013D                 mov     a, m
ROM:013E                 cpi     47h ; 'G'
ROM:0140                 jz      loc_16B
ROM:0143                 mvi     b, 2
ROM:0145                 ani     0F8h
ROM:0147                 xri     30h
ROM:0149                 jz      loc_14E
ROM:014C                 mvi     b, 14h
ROM:014E
ROM:014E loc_14E:                                ; CODE XREF: sub_F0+59↑j
ROM:014E                 call    sub_404
ROM:0151
ROM:0151 loc_151:                                ; CODE XREF: sub_F0+4A↑j
ROM:0151                 inx     h
ROM:0152                 dcr     c
ROM:0153                 jnz     loc_131
ROM:0156                 lhld    word_20A9
ROM:0159                 inx     h
ROM:015A                 shld    word_20A9
ROM:015D                 mvi     a, 4
ROM:015F                 cmp     l
ROM:0160                 jnz     loc_126
ROM:0163                 lda     UART_STATE      ; Pointer to current UART state machine handler
ROM:0166                 cpi     1Ah
ROM:0168                 jnz     loc_126
ROM:016B
ROM:016B loc_16B:                                ; CODE XREF: sub_F0+50↑j
ROM:016B                 call    sub_49
ROM:016E                 sta     byte_20B6
ROM:0171                 jmp     loc_91
ROM:0171 ; End of function sub_F0
ROM:0171
ROM:0174 ; ---------------------------------------------------------------------------
ROM:0174
ROM:0174 loc_174:                                ; DATA XREF: sub_4D↑o
ROM:0174                                         ; ROM:020D↓o
ROM:0174                 cpi     8
ROM:0176                 lxi     h, 11Ah
ROM:0179                 jz      loc_1C0
ROM:017C                 cpi     13h
ROM:017E                 jnz     loc_189
ROM:0181                 mvi     a, 0FFh
ROM:0183                 sta     XOFF_FLAG
ROM:0186                 jmp     loc_1C3
ROM:0189 ; ---------------------------------------------------------------------------
ROM:0189
ROM:0189 loc_189:                                ; CODE XREF: ROM:017E↑j
ROM:0189                 mov     l, a
ROM:018A                 ani     0FEh
ROM:018C                 cpi     10h
ROM:018E                 jnz     loc_198
ROM:0191                 xra     a
ROM:0192                 sta     XOFF_FLAG
ROM:0195                 jmp     loc_1C3
ROM:0198 ; ---------------------------------------------------------------------------
ROM:0198
ROM:0198 loc_198:                                ; CODE XREF: ROM:018E↑j
ROM:0198                 mvi     a, 4
ROM:019A                 cmp     l
ROM:019B                 jz      loc_258
ROM:019E                 lda     byte_20A2
ROM:01A1                 ani     80h
ROM:01A3                 jnz     loc_10
ROM:01A6                 mov     a, l
ROM:01A7                 sta     RSP_PKT_BUF.FLAG ; RSP command/response packet buffer
ROM:01AA                 sta     word_209F
ROM:01AD                 lxi     d,  RSP_PKT_BUF.DATA13+4 ; RSP command/response packet buffer
ROM:01B0                 cpi     1
ROM:01B2                 jz      loc_1BD
ROM:01B5                 lxi     d, RSP_PKT_BUF.OP_DATA ; RSP command/response packet buffer
ROM:01B8                 cpi     2
ROM:01BA                 jnz     loc_10
ROM:01BD
ROM:01BD loc_1BD:                                ; CODE XREF: ROM:01B2↑j
ROM:01BD                 lxi     h, loc_1C7
ROM:01C0
ROM:01C0 loc_1C0:                                ; CODE XREF: ROM:0179↑j
ROM:01C0                                         ; ROM:01D8↓j ...
ROM:01C0                 shld    UART_STATE      ; Pointer to current UART state machine handler
ROM:01C3
ROM:01C3 loc_1C3:                                ; CODE XREF: ROM:0186↑j
ROM:01C3                                         ; ROM:0195↑j ...
ROM:01C3                 pop     h
ROM:01C4                 pop     psw
ROM:01C5                 ei
ROM:01C6                 ret
ROM:01C7 ; ---------------------------------------------------------------------------
ROM:01C7
ROM:01C7 loc_1C7:                                ; DATA XREF: ROM:loc_1BD↑o
ROM:01C7                 mov     c, a
ROM:01C8                 sta     RSP_PKT_BUF.MBC ; RSP command/response packet buffer
ROM:01CB                 sta     word_209F+1
ROM:01CE                 cpi     81h
ROM:01D0                 jnc     loc_10
ROM:01D3                 mvi     b, 1
ROM:01D5                 lxi     h, loc_1DB
ROM:01D8                 jmp     loc_1C0
ROM:01DB ; ---------------------------------------------------------------------------
ROM:01DB
ROM:01DB loc_1DB:                                ; DATA XREF: ROM:01D5↑o
ROM:01DB                 stax    d
ROM:01DC                 ldax    d
ROM:01DD                 call    sub_213
ROM:01E0                 dcr     c
ROM:01E1                 jz      loc_1E8
ROM:01E4                 inx     d
ROM:01E5                 jmp     loc_1C3
ROM:01E8 ; ---------------------------------------------------------------------------
ROM:01E8
ROM:01E8 loc_1E8:                                ; CODE XREF: ROM:01E1↑j
ROM:01E8                 lxi     h, loc_1EE
ROM:01EB                 jmp     loc_1C0
ROM:01EE ; ---------------------------------------------------------------------------
ROM:01EE
ROM:01EE loc_1EE:                                ; DATA XREF: ROM:loc_1E8↑o
ROM:01EE                 lxi     h, word_209F
ROM:01F1                 sub     m
ROM:01F2                 jnz     loc_10
ROM:01F5                 lxi     h, loc_1FB
ROM:01F8                 jmp     loc_1C0
ROM:01FB ; ---------------------------------------------------------------------------
ROM:01FB
ROM:01FB loc_1FB:                                ; DATA XREF: ROM:01F5↑o
ROM:01FB                 lxi     h,  word_209F+1
ROM:01FE                 sub     m
ROM:01FF                 jnz     loc_10
ROM:0202                 lhld    word_209F
ROM:0205                 shld    UART_CKSUM      ; UART state machine checksum
ROM:0208                 mvi     a, 80h
ROM:020A                 sta     byte_20A2
ROM:020D                 lxi     h, loc_174
ROM:0210                 jmp     loc_1C0
ROM:0213
ROM:0213 ; =============== S U B R O U T I N E =======================================
ROM:0213
ROM:0213
ROM:0213 sub_213:                                ; CODE XREF: ROM:01DD↑p
ROM:0213                                         ; sub_26A+E↓p ...
ROM:0213                 push    h
ROM:0214                 mov     l, a
ROM:0215                 mov     a, b
ROM:0216                 xri     1
ROM:0218                 mov     b, a
ROM:0219                 jnz     loc_224
ROM:021C
ROM:021C loc_21C:                                ; CODE XREF: sub_213+19↓j
ROM:021C                 mov     a, l
ROM:021D                 lxi     h, word_209F
ROM:0220                 adc     m
ROM:0221                 mov     m, a
ROM:0222                 mvi     l, 0
ROM:0224
ROM:0224 loc_224:                                ; CODE XREF: sub_213+6↑j
ROM:0224                 mov     a, l
ROM:0225                 lxi     h,  word_209F+1
ROM:0228                 adc     m
ROM:0229                 mov     m, a
ROM:022A                 mvi     l, 0
ROM:022C                 jc      loc_21C
ROM:022F                 pop     h
ROM:0230                 ret
ROM:0230 ; End of function sub_213
ROM:0230
ROM:0231
ROM:0231 ; =============== S U B R O U T I N E =======================================
ROM:0231
ROM:0231
ROM:0231 sub_231:                                ; CODE XREF: sub_552-539↑p
ROM:0231                                         ; sub_F0+42↑p ...
ROM:0231                 push    psw
ROM:0232                 push    h
ROM:0233                 mvi     l, 8
ROM:0235
ROM:0235 loc_235:                                ; CODE XREF: sub_231+D↓j
ROM:0235                                         ; sub_231+14↓j
ROM:0235                 dcr     l
ROM:0236                 push    b
ROM:0237                 cz      sub_40E
ROM:023A                 pop     b
ROM:023B                 rim
ROM:023C                 ani     10h
ROM:023E                 jz      loc_235
ROM:0241                 lda     XOFF_FLAG
ROM:0244                 inr     a
ROM:0245                 jz      loc_235
ROM:0248                 pop     h
ROM:0249                 pop     psw
ROM:024A                 out     IO_UART
ROM:024C                 lda     RSP_PKT_BUF.SWITCHES ; RSP command/response packet buffer
ROM:024F                 ani     8
ROM:0251                 rz
ROM:0252                 mvi     a, 0FFh
ROM:0254                 sta     XOFF_FLAG
ROM:0257                 ret
ROM:0257 ; End of function sub_231
ROM:0257
ROM:0258 ; ---------------------------------------------------------------------------
ROM:0258
ROM:0258 loc_258:                                ; CODE XREF: ROM:019B↑j
ROM:0258                 lxi     sp, STACK_TOP
ROM:025B                 call    sub_49
ROM:025E                 call    sub_54C
ROM:0261                 jmp     loc_91
ROM:0264
ROM:0264 ; =============== S U B R O U T I N E =======================================
ROM:0264
ROM:0264
ROM:0264 sub_264:                                ; CODE XREF: sub_552+6D↓p
ROM:0264                                         ; sub_552+1DF↓p ...
ROM:0264                 lxi     h,  RSP_PKT_BUF.DATA13+2 ; RSP command/response packet buffer
ROM:0267                 mvi     m, 1
ROM:0269                 inx     h
ROM:0269 ; End of function sub_264
ROM:0269
ROM:026A
ROM:026A ; =============== S U B R O U T I N E =======================================
ROM:026A
ROM:026A
ROM:026A sub_26A:                                ; CODE XREF: sub_552+21D↓p
ROM:026A                 mov     d, m
ROM:026B                 inr     d
ROM:026C                 inr     d
ROM:026D                 xra     a
ROM:026E                 sta     word_209F
ROM:0271                 sta     word_209F+1
ROM:0274                 mvi     b, 1
ROM:0276                 dcx     h
ROM:0277
ROM:0277 loc_277:                                ; CODE XREF: sub_26A+17↓j
ROM:0277                 mov     a, m
ROM:0278                 call    sub_213
ROM:027B                 mov     a, m
ROM:027C                 call    sub_231
ROM:027F                 inx     h
ROM:0280                 dcr     d
ROM:0281                 jnz     loc_277
ROM:0284                 lxi     h, word_209F
ROM:0287                 call    sub_28B
ROM:028A                 inx     h
ROM:028A ; End of function sub_26A
ROM:028A
ROM:028B
ROM:028B ; =============== S U B R O U T I N E =======================================
ROM:028B
ROM:028B
ROM:028B sub_28B:                                ; CODE XREF: sub_26A+1D↑p
ROM:028B                 mvi     a, 1Eh
ROM:028D                 call    sub_3FB
ROM:0290                 mov     a, m
ROM:0291                 call    sub_231
ROM:0294                 ret
ROM:0294 ; End of function sub_28B
ROM:0294
ROM:0295 ; ---------------------------------------------------------------------------
ROM:0295
ROM:0295 RSP_POS:                                ; DATA XREF: ROM:00E2↑o
ROM:0295                 call    loc_6FA         ; RSP Position Opcode
ROM:0298                 call    sub_2A4
ROM:029B                 call    sub_324
ROM:029E                 call    sub_40E
ROM:02A1                 jmp     RSP_NOP         ; RSP NOP/Reserved Opcodes
ROM:02A4
ROM:02A4 ; =============== S U B R O U T I N E =======================================
ROM:02A4
ROM:02A4
ROM:02A4 sub_2A4:                                ; CODE XREF: ROM:0298↑p
ROM:02A4                                         ; sub_552:loc_557↓p ...
ROM:02A4                 lhld    word_20A9
ROM:02A7                 xchg
ROM:02A8                 lxi     h, byte_20AE
ROM:02AB                 mvi     m, 0E9h
ROM:02AD                 mov     a, d
ROM:02AE                 cpi     8
ROM:02B0                 mvi     a, 0FEh
ROM:02B2                 jnc     loc_775
ROM:02B5                 mov     a, d
ROM:02B6                 cpi     4
ROM:02B8                 cmc
ROM:02B9                 mov     a, e
ROM:02BA                 ral
ROM:02BB                 mov     e, a
ROM:02BC                 mov     a, d
ROM:02BD                 ral
ROM:02BE                 ani     7
ROM:02C0                 mov     d, a
ROM:02C1                 cpi     4
ROM:02C3                 jc      loc_2C8
ROM:02C6                 mvi     m, 0F9h
ROM:02C8
ROM:02C8 loc_2C8:                                ; CODE XREF: sub_2A4+1F↑j
ROM:02C8                 lda     RSP_PKT_BUF.UNIT ; RSP command/response packet buffer
ROM:02CB                 cpi     1
ROM:02CD                 jz      loc_2D8
ROM:02D0                 jc      loc_2E4
ROM:02D3                 mvi     a, 0F8h
ROM:02D5                 jmp     loc_775
ROM:02D8 ; ---------------------------------------------------------------------------
ROM:02D8
ROM:02D8 loc_2D8:                                ; CODE XREF: sub_2A4+29↑j
ROM:02D8                 mov     a, m
ROM:02D9                 ani     0F7h
ROM:02DB                 mov     m, a
ROM:02DC                 mvi     a, 4
ROM:02DE                 lhld    word_20A5
ROM:02E1                 jmp     loc_2E9
ROM:02E4 ; ---------------------------------------------------------------------------
ROM:02E4
ROM:02E4 loc_2E4:                                ; CODE XREF: sub_2A4+2C↑j
ROM:02E4                 mvi     a, 8
ROM:02E6                 lhld    word_20A3
ROM:02E9
ROM:02E9 loc_2E9:                                ; CODE XREF: sub_2A4+3D↑j
ROM:02E9                 sta     byte_20B3
ROM:02EC                 mov     c, a
ROM:02ED                 lda     byte_20AD
ROM:02F0                 ana     c
ROM:02F1                 jz      loc_2F6
ROM:02F4                 mov     l, e
ROM:02F5                 mov     h, d
ROM:02F6
ROM:02F6 loc_2F6:                                ; CODE XREF: sub_2A4+4D↑j
ROM:02F6                 call    sub_2FE
ROM:02F9                 xchg
ROM:02FA                 shld    word_20A7
ROM:02FD                 ret
ROM:02FD ; End of function sub_2A4
ROM:02FD
ROM:02FE
ROM:02FE ; =============== S U B R O U T I N E =======================================
ROM:02FE
ROM:02FE
ROM:02FE sub_2FE:                                ; CODE XREF: sub_2A4:loc_2F6↑p
ROM:02FE                                         ; sub_324:loc_329↓p ...
ROM:02FE                 call    sub_318
ROM:0301                 push    h
ROM:0302                 lxi     h, byte_20B3
ROM:0305                 in      IO_8155_PA      ; Input port
ROM:0307                 ana     m
ROM:0308                 mvi     a, 0F7h
ROM:030A                 jnz     loc_775
ROM:030D                 lda     byte_20AD
ROM:0310                 cma
ROM:0311                 ora     m
ROM:0312                 cma
ROM:0313                 sta     byte_20AD
ROM:0316                 pop     h
ROM:0317                 ret
ROM:0317 ; End of function sub_2FE
ROM:0317
ROM:0318
ROM:0318 ; =============== S U B R O U T I N E =======================================
ROM:0318
ROM:0318
ROM:0318 sub_318:                                ; CODE XREF: sub_552:loc_A8↑p
ROM:0318                                         ; sub_2FE↑p ...
ROM:0318                 push    h
ROM:0319                 in      IO_8155_PA      ; Input port
ROM:031B                 ani     B_CART_L|A_CART_L ; 8155 Input Port A Bit Definitions
ROM:031D                 lxi     h, byte_20AD
ROM:0320                 ora     m
ROM:0321                 mov     m, a
ROM:0322                 pop     h
ROM:0323                 ret
ROM:0323 ; End of function sub_318
ROM:0323
ROM:0324
ROM:0324 ; =============== S U B R O U T I N E =======================================
ROM:0324
ROM:0324
ROM:0324 sub_324:                                ; CODE XREF: ROM:029B↑p
ROM:0324                                         ; sub_552:loc_572↓p ...
ROM:0324
ROM:0324 ; FUNCTION CHUNK AT ROM:0508 SIZE 0000000C BYTES
ROM:0324
ROM:0324                 mvi     a, 0F8h
ROM:0326                 sta     byte_20B0
ROM:0329
ROM:0329 loc_329:                                ; CODE XREF: sub_324+AD↓j
ROM:0329                                         ; sub_324+B4↓j ...
ROM:0329                 call    sub_2FE
ROM:032C                 lhld    word_20A7
ROM:032F                 mov     a, h
ROM:0330                 ani     3
ROM:0332                 mov     h, a
ROM:0333                 mov     a, d
ROM:0334                 ani     3
ROM:0336                 mov     d, a
ROM:0337                 mov     a, l
ROM:0338                 sub     e
ROM:0339                 mov     l, a
ROM:033A                 mov     a, h
ROM:033B                 sbb     d
ROM:033C                 mov     h, a
ROM:033D                 jnc     loc_366
ROM:0340
ROM:0340 loc_340:                                ; CODE XREF: sub_324+48↓j
ROM:0340                 lda     byte_20B0
ROM:0343                 inr     a
ROM:0344                 sta     byte_20B0
ROM:0347                 mvi     a, 0E0h
ROM:0349                 jz      loc_775
ROM:034C                 mov     a, l
ROM:034D                 cma
ROM:034E                 mov     l, a
ROM:034F                 mov     a, h
ROM:0350                 cma
ROM:0351                 mov     h, a
ROM:0352                 inx     h
ROM:0353                 inx     h
ROM:0354                 inx     h
ROM:0355                 lda     byte_20AE
ROM:0358                 ori     4
ROM:035A                 sta     byte_20AE
ROM:035D                 call    sub_43B
ROM:0360                 call    sub_40E
ROM:0363                 jmp     loc_380
ROM:0366 ; ---------------------------------------------------------------------------
ROM:0366
ROM:0366 loc_366:                                ; CODE XREF: sub_324+19↑j
ROM:0366                 xra     a
ROM:0367                 cmp     h
ROM:0368                 jnz     loc_375
ROM:036B                 cmp     l
ROM:036C                 jz      loc_340
ROM:036F                 mvi     a, 4
ROM:0371                 cmp     l
ROM:0372                 jnc     loc_380
ROM:0375
ROM:0375 loc_375:                                ; CODE XREF: sub_324+44↑j
ROM:0375                 dcx     h
ROM:0376                 dcx     h
ROM:0377                 dcx     h
ROM:0378                 call    sub_43B
ROM:037B                 mvi     b, 0Fh
ROM:037D                 call    sub_410
ROM:0380
ROM:0380 loc_380:                                ; CODE XREF: sub_324+3F↑j
ROM:0380                                         ; sub_324+4E↑j ...
ROM:0380                 mvi     a, 0BEh
ROM:0382                 out     IO_8155_TIMERL
ROM:0384                 mvi     a, 0C0h
ROM:0386                 out     IO_8155_TIMERH
ROM:0388                 mvi     a, PB|PC_ALT2|TM_START ; 8155 CSR Register Bit Definitions
ROM:038A                 out     IO_8155_CSR
ROM:038C                 lda     byte_20AE
ROM:038F                 ori     80h
ROM:0391                 ani     0FAh
ROM:0393                 sta     byte_20AE
ROM:0396                 mov     b, a
ROM:0397                 in      IO_8155_PB      ; Output port
ROM:0399                 ani     1
ROM:039B                 mov     a, b
ROM:039C                 out     IO_8155_PB      ; Output port
ROM:039E                 mvi     b, 1Eh
ROM:03A0                 cnz     sub_404
ROM:03A3                 call    sub_474
ROM:03A6                 cpi     9
ROM:03A8                 jp      loc_508
ROM:03AB                 call    sub_4A9
ROM:03AE                 mvi     c, 4
ROM:03B0                 lxi     h, word_209B
ROM:03B3                 call    sub_4D9
ROM:03B6                 lda     byte_209D
ROM:03B9                 lxi     h, word_209B
ROM:03BC                 cma
ROM:03BD                 cmp     m
ROM:03BE                 jnz     loc_3E1
ROM:03C1                 lda     byte_209E
ROM:03C4                 cma
ROM:03C5                 inx     h
ROM:03C6                 cmp     m
ROM:03C7                 jnz     loc_3E1
ROM:03CA                 call    sub_520
ROM:03CD                 lda     word_20A7
ROM:03D0                 cmp     e
ROM:03D1                 jnz     loc_329
ROM:03D4                 lda     word_20A7+1
ROM:03D7                 cmp     d
ROM:03D8                 jnz     loc_329
ROM:03DB                 mvi     l, 8
ROM:03DD                 call    sub_3F2
ROM:03E0                 ret
ROM:03E1 ; ---------------------------------------------------------------------------
ROM:03E1
ROM:03E1 loc_3E1:                                ; CODE XREF: sub_324+9A↑j
ROM:03E1                                         ; sub_324+A3↑j
ROM:03E1                 mvi     l, 10h
ROM:03E3                 call    sub_3F2
ROM:03E6                 lxi     h, byte_20B0
ROM:03E9                 inr     m
ROM:03EA                 jnz     loc_380
ROM:03ED                 mvi     a, 0E0h
ROM:03EF                 jmp     loc_775
ROM:03EF ; End of function sub_324
ROM:03EF
ROM:03F2
ROM:03F2 ; =============== S U B R O U T I N E =======================================
ROM:03F2
ROM:03F2
ROM:03F2 sub_3F2:                                ; CODE XREF: sub_324+B9↑p
ROM:03F2                                         ; sub_324+BF↑p ...
ROM:03F2                 in      IO_8155_PC      ; Output port
ROM:03F4                 xra     l
ROM:03F5                 out     IO_8155_PC      ; Output port
ROM:03F7                 xra     l
ROM:03F8                 out     IO_8155_PC      ; Output port
ROM:03FA                 ret
ROM:03FA ; End of function sub_3F2
ROM:03FA
ROM:03FB
ROM:03FB ; =============== S U B R O U T I N E =======================================
ROM:03FB
ROM:03FB
ROM:03FB sub_3FB:                                ; CODE XREF: sub_28B+2↑p
ROM:03FB                                         ; sub_3FB+5↓j ...
ROM:03FB                 ani     0FFh
ROM:03FD                 nop
ROM:03FE                 nop
ROM:03FF                 dcr     a
ROM:0400                 jnz     sub_3FB
ROM:0403                 ret
ROM:0403 ; End of function sub_3FB
ROM:0403
ROM:0404
ROM:0404 ; =============== S U B R O U T I N E =======================================
ROM:0404
ROM:0404
ROM:0404 sub_404:                                ; CODE XREF: sub_F0+24↑p
ROM:0404                                         ; sub_F0:loc_14E↑p ...
ROM:0404                 mvi     a, 60h ; '`'
ROM:0406                 call    sub_3FB
ROM:0409                 dcr     b
ROM:040A                 jnz     sub_404
ROM:040D                 ret
ROM:040D ; End of function sub_404
ROM:040D
ROM:040E
ROM:040E ; =============== S U B R O U T I N E =======================================
ROM:040E
ROM:040E
ROM:040E sub_40E:                                ; CODE XREF: sub_F0+39↑p
ROM:040E                                         ; sub_231+6↑p ...
ROM:040E                 mvi     b, 2Bh ; '+'
ROM:040E ; End of function sub_40E
ROM:040E
ROM:0410
ROM:0410 ; =============== S U B R O U T I N E =======================================
ROM:0410
ROM:0410
ROM:0410 sub_410:                                ; CODE XREF: sub_324+59↑p
ROM:0410                 in      IO_8155_PA      ; Input port
ROM:0412                 ani     RUN_TP_L        ; 8155 Input Port A Bit Definitions
ROM:0414                 rnz
ROM:0415                 lda     byte_20AE
ROM:0418                 xri     RUN_L|REVERSE_H ; 8155 Output Port B Bit Definitions
ROM:041A                 out     IO_8155_PB      ; Output port
ROM:041C                 xri     RUN_L           ; 8155 Output Port B Bit Definitions
ROM:041E                 out     IO_8155_PB      ; Output port
ROM:0420                 push    h
ROM:0421                 mov     h, a
ROM:0422
ROM:0422 loc_422:                                ; CODE XREF: sub_410+1B↓j
ROM:0422                 mov     c, b
ROM:0423                 in      IO_8155_PA      ; Input port
ROM:0425                 mov     l, a
ROM:0426
ROM:0426 loc_426:                                ; CODE XREF: sub_410+1F↓j
ROM:0426                 in      IO_8155_PA      ; Input port
ROM:0428                 xra     l
ROM:0429                 ani     VEL_TP_H        ; 8155 Input Port A Bit Definitions
ROM:042B                 jnz     loc_422
ROM:042E                 dcr     c
ROM:042F                 jnz     loc_426
ROM:0432                 lda     byte_20AE
ROM:0435                 ori     RUN_L           ; 8155 Output Port B Bit Definitions
ROM:0437                 out     IO_8155_PB      ; Output port
ROM:0439                 pop     h
ROM:043A                 ret
ROM:043A ; End of function sub_410
ROM:043A
ROM:043B
ROM:043B ; =============== S U B R O U T I N E =======================================
ROM:043B
ROM:043B
ROM:043B sub_43B:                                ; CODE XREF: sub_324+39↑p
ROM:043B                                         ; sub_324+54↑p
ROM:043B
ROM:043B ; FUNCTION CHUNK AT ROM:0507 SIZE 00000001 BYTES
ROM:043B ; FUNCTION CHUNK AT ROM:0514 SIZE 0000000C BYTES
ROM:043B
ROM:043B                 mvi     a, 5Fh ; '_'
ROM:043D                 out     IO_8155_TIMERL
ROM:043F                 mvi     a, 0C0h
ROM:0441                 out     IO_8155_TIMERH
ROM:0443                 mvi     a, PB|PC_ALT2|TM_START ; 8155 CSR Register Bit Definitions
ROM:0445                 out     IO_8155_CSR
ROM:0447                 lda     byte_20AE
ROM:044A                 ani     WRT_ENB_H|REVERSE_H|SEL_DRV_B_L|SEL_TRK_0_L|GAIN_REDUCE_L|ERASE_ENA_L ; 8155 Output Port B Bit Definitions
ROM:044C                 sta     byte_20AE
ROM:044F                 out     IO_8155_PB      ; Output port
ROM:0451                 mvi     b, 2Dh ; '-'
ROM:0453                 call    sub_404
ROM:0456
ROM:0456 loc_456:                                ; CODE XREF: sub_43B+31↓j
ROM:0456                                         ; sub_43B+35↓j
ROM:0456                 call    sub_474
ROM:0459                 cpi     4
ROM:045B                 jm      loc_514
ROM:045E                 cpi     9
ROM:0460                 jp      loc_507
ROM:0463                 call    sub_4A9
ROM:0466                 call    sub_2FE
ROM:0469                 dcx     h
ROM:046A                 xra     a
ROM:046B                 cmp     h
ROM:046C                 jnz     loc_456
ROM:046F                 cmp     l
ROM:0470                 jnz     loc_456
ROM:0473                 ret
ROM:0473 ; End of function sub_43B
ROM:0473
ROM:0474
ROM:0474 ; =============== S U B R O U T I N E =======================================
ROM:0474
ROM:0474
ROM:0474 sub_474:                                ; CODE XREF: sub_324+7F↑p
ROM:0474                                         ; sub_43B:loc_456↑p ...
ROM:0474                 mvi     d, 0Ch
ROM:0476                 mvi     e, 0
ROM:0478                 mvi     b, 5
ROM:047A
ROM:047A loc_47A:                                ; CODE XREF: sub_474+A↓j
ROM:047A                 in      IO_8155_PA      ; Input port
ROM:047C                 ani     RUN_TP_L|MARK_H ; 8155 Input Port A Bit Definitions
ROM:047E                 jz      loc_47A
ROM:0481                 ani     10h
ROM:0483
ROM:0483 loc_483:                                ; CODE XREF: sub_4C8+7↓j
ROM:0483                 mvi     a, 0DFh
ROM:0485                 jnz     loc_775
ROM:0488
ROM:0488 loc_488:                                ; CODE XREF: sub_474+22↓j
ROM:0488                                         ; sub_474+2D↓j
ROM:0488                 call    sub_4C8
ROM:048B                 in      IO_8155_PA      ; Input port
ROM:048D                 ani     MARK_H          ; 8155 Input Port A Bit Definitions
ROM:048F                 jnz     loc_499
ROM:0492                 dcr     b
ROM:0493                 jz      sub_474
ROM:0496                 jmp     loc_488
ROM:0499 ; ---------------------------------------------------------------------------
ROM:0499
ROM:0499 loc_499:                                ; CODE XREF: sub_474+1B↑j
ROM:0499                 rim
ROM:049A                 ani     80h
ROM:049C                 jz      loc_4A0
ROM:049F                 inr     e
ROM:04A0
ROM:04A0 loc_4A0:                                ; CODE XREF: sub_474+28↑j
ROM:04A0                 dcr     d
ROM:04A1                 jnz     loc_488
ROM:04A4                 mvi     a, 1Dh
ROM:04A6                 sim
ROM:04A7                 mov     a, e
ROM:04A8                 ret
ROM:04A8 ; End of function sub_474
ROM:04A8
ROM:04A9
ROM:04A9 ; =============== S U B R O U T I N E =======================================
ROM:04A9
ROM:04A9
ROM:04A9 sub_4A9:                                ; CODE XREF: sub_324+87↑p
ROM:04A9                                         ; sub_43B+28↑p
ROM:04A9                 push    psw
ROM:04AA                 lda     byte_20AE
ROM:04AD                 ori     RUN_L           ; 8155 Output Port B Bit Definitions
ROM:04AF                 out     IO_8155_PB      ; Output port
ROM:04B1                 nop
ROM:04B2                 ani     WRT_ENB_H|REVERSE_H|SEL_DRV_B_L|SEL_TRK_0_L|GAIN_REDUCE_L|ERASE_ENA_L|IPS30_L ; 8155 Output Port B Bit Definitions
ROM:04B4                 out     IO_8155_PB      ; Output port
ROM:04B6
ROM:04B6 loc_4B6:                                ; CODE XREF: sub_4A9+16↓j
ROM:04B6                 mvi     e, 3
ROM:04B8
ROM:04B8 loc_4B8:                                ; CODE XREF: sub_4A9+1A↓j
ROM:04B8                 call    sub_4C8
ROM:04BB                 in      IO_8155_PA      ; Input port
ROM:04BD                 ani     RUN_TP_L|MARK_H ; 8155 Input Port A Bit Definitions
ROM:04BF                 jnz     loc_4B6
ROM:04C2                 dcr     e
ROM:04C3                 jnz     loc_4B8
ROM:04C6                 pop     psw
ROM:04C7                 ret
ROM:04C7 ; End of function sub_4A9
ROM:04C7
ROM:04C8
ROM:04C8 ; =============== S U B R O U T I N E =======================================
ROM:04C8
ROM:04C8
ROM:04C8 sub_4C8:                                ; CODE XREF: sub_474:loc_488↑p
ROM:04C8                                         ; sub_4A9:loc_4B8↑p
ROM:04C8                 mvi     a, 1Dh
ROM:04CA                 sim
ROM:04CB
ROM:04CB loc_4CB:                                ; CODE XREF: sub_4C8+D↓j
ROM:04CB                 in      IO_8155_PA      ; Input port
ROM:04CD                 ani     RUN_TP_L        ; 8155 Input Port A Bit Definitions
ROM:04CF                 jnz     loc_483
ROM:04D2                 rim
ROM:04D3                 ani     40h
ROM:04D5                 jz      loc_4CB
ROM:04D8                 ret
ROM:04D8 ; End of function sub_4C8
ROM:04D8
ROM:04D9
ROM:04D9 ; =============== S U B R O U T I N E =======================================
ROM:04D9
ROM:04D9
ROM:04D9 sub_4D9:                                ; CODE XREF: sub_324+8F↑p
ROM:04D9                                         ; sub_552+2D↓p
ROM:04D9                 mvi     a, 1Bh
ROM:04DB                 sim
ROM:04DC
ROM:04DC loc_4DC:                                ; CODE XREF: sub_4D9+7↓j
ROM:04DC                 ei
ROM:04DD                 hlt
ROM:04DE                 ani     80h
ROM:04E0                 jz      loc_4DC
ROM:04E3                 ei
ROM:04E4                 hlt
ROM:04E5                 ei
ROM:04E6                 hlt
ROM:04E7                 ei
ROM:04E8                 hlt
ROM:04E9
ROM:04E9 loc_4E9:                                ; CODE XREF: sub_4D9+26↓j
ROM:04E9                 ei
ROM:04EA                 hlt
ROM:04EB                 ei
ROM:04EC                 hlt
ROM:04ED                 ei
ROM:04EE                 hlt
ROM:04EF                 ei
ROM:04F0                 hlt
ROM:04F1                 ei
ROM:04F2                 hlt
ROM:04F3                 mov     m, b
ROM:04F4                 ei
ROM:04F5                 hlt
ROM:04F6                 dcr     c
ROM:04F7                 jz      loc_502
ROM:04FA                 ei
ROM:04FB                 hlt
ROM:04FC                 inx     h
ROM:04FD                 ei
ROM:04FE                 hlt
ROM:04FF                 jmp     loc_4E9
ROM:0502 ; ---------------------------------------------------------------------------
ROM:0502
ROM:0502 loc_502:                                ; CODE XREF: sub_4D9+1E↑j
ROM:0502                 mvi     a, 0Dh
ROM:0504                 sim
ROM:0505                 ei
ROM:0506                 ret
ROM:0506 ; End of function sub_4D9
ROM:0506
ROM:0507 ; ---------------------------------------------------------------------------
ROM:0507 ; START OF FUNCTION CHUNK FOR sub_43B
ROM:0507
ROM:0507 loc_507:                                ; CODE XREF: sub_43B+25↑j
ROM:0507                 pop     psw
ROM:0507 ; END OF FUNCTION CHUNK FOR sub_43B
ROM:0508 ; START OF FUNCTION CHUNK FOR sub_324
ROM:0508
ROM:0508 loc_508:                                ; CODE XREF: sub_324+84↑j
ROM:0508                 lxi     h, 3FFh
ROM:050B                 shld    word_209B
ROM:050E                 call    sub_520
ROM:0511                 jmp     loc_329
ROM:0511 ; END OF FUNCTION CHUNK FOR sub_324
ROM:0514 ; ---------------------------------------------------------------------------
ROM:0514 ; START OF FUNCTION CHUNK FOR sub_43B
ROM:0514
ROM:0514 loc_514:                                ; CODE XREF: sub_43B+20↑j
ROM:0514                 pop     psw
ROM:0515                 mvi     b, 28h ; '('
ROM:0517                 call    sub_404
ROM:051A                 call    sub_40E
ROM:051D                 jmp     loc_380
ROM:051D ; END OF FUNCTION CHUNK FOR sub_43B
ROM:0520
ROM:0520 ; =============== S U B R O U T I N E =======================================
ROM:0520
ROM:0520
ROM:0520 sub_520:                                ; CODE XREF: sub_324+A6↑p
ROM:0520                                         ; sub_324+1EA↑p ...
ROM:0520                 lhld    word_209B
ROM:0523                 xchg
ROM:0524                 lxi     h, word_20A3
ROM:0527                 lda     RSP_PKT_BUF.UNIT ; RSP command/response packet buffer
ROM:052A                 dcr     a
ROM:052B                 jm      loc_531
ROM:052E                 lxi     h, word_20A5
ROM:0531
ROM:0531 loc_531:                                ; CODE XREF: sub_520+B↑j
ROM:0531                 mov     m, e
ROM:0532                 inx     h
ROM:0533                 mov     m, d
ROM:0534                 ret
ROM:0534 ; End of function sub_520
ROM:0534
ROM:0535
ROM:0535 ; =============== S U B R O U T I N E =======================================
ROM:0535
ROM:0535
ROM:0535 sub_535:                                ; CODE XREF: sub_552+30↓p
ROM:0535                                         ; sub_552:loc_601↓p
ROM:0535                 lhld    word_20A7
ROM:0538                 shld    word_209F
ROM:053B
ROM:053B loc_53B:                                ; CODE XREF: sub_552+13D↓p
ROM:053B                 lxi     d,  RSP_PKT_BUF.DATA13+4 ; RSP command/response packet buffer
ROM:053B ; End of function sub_535
ROM:053B
ROM:053E
ROM:053E ; =============== S U B R O U T I N E =======================================
ROM:053E
ROM:053E
ROM:053E sub_53E:                                ; CODE XREF: sub_79A:loc_7AE↓p
ROM:053E                 mvi     c, 80h
ROM:0540                 mvi     b, 1
ROM:0542
ROM:0542 loc_542:                                ; CODE XREF: sub_53E+B↓j
ROM:0542                 ldax    d
ROM:0543                 call    sub_213
ROM:0546                 inx     d
ROM:0547                 dcr     c
ROM:0548                 rz
ROM:0549                 jmp     loc_542
ROM:0549 ; End of function sub_53E
ROM:0549
ROM:054C
ROM:054C ; =============== S U B R O U T I N E =======================================
ROM:054C
ROM:054C
ROM:054C sub_54C:                                ; CODE XREF: ROM:025E↑p
ROM:054C                                         ; sub_552+7C↓p
ROM:054C                 mvi     a, 10h
ROM:054E                 call    sub_231
ROM:0551                 ret
ROM:0551 ; End of function sub_54C
ROM:0551
ROM:0552
ROM:0552 ; =============== S U B R O U T I N E =======================================
ROM:0552
ROM:0552
ROM:0552 sub_552:                                ; CODE XREF: sub_F0:loc_126↑p
ROM:0552                                         ; sub_552:loc_6CE↓p ...
ROM:0552
ROM:0552 ; FUNCTION CHUNK AT ROM:0010 SIZE 00000012 BYTES
ROM:0552 ; FUNCTION CHUNK AT ROM:0091 SIZE 00000047 BYTES
ROM:0552
ROM:0552                 mvi     a, 0F8h
ROM:0554                 sta     byte_20AF
ROM:0557
ROM:0557 loc_557:                                ; CODE XREF: sub_552+62↓j
ROM:0557                 call    sub_2A4
ROM:055A                 lda     byte_20AF
ROM:055D                 ani     1
ROM:055F                 jnz     loc_56A
ROM:0562                 lda     RSP_PKT_BUF.MOD_SUCC ; RSP command/response packet buffer
ROM:0565                 ani     1
ROM:0567                 jz      loc_572
ROM:056A
ROM:056A loc_56A:                                ; CODE XREF: sub_552+D↑j
ROM:056A                 lda     byte_20AE
ROM:056D                 ani     0DFh
ROM:056F                 sta     byte_20AE
ROM:0572
ROM:0572 loc_572:                                ; CODE XREF: sub_552+15↑j
ROM:0572                 call    sub_324
ROM:0575                 mvi     a, 0A2h
ROM:0577                 call    sub_3FB
ROM:057A                 mvi     c, 82h
ROM:057C                 lxi     h,  RSP_PKT_BUF.DATA13+4 ; RSP command/response packet buffer
ROM:057F                 call    sub_4D9
ROM:0582                 call    sub_535
ROM:0585
ROM:0585 loc_585:                                ; CODE XREF: sub_552+134↓p
ROM:0585                                         ; sub_552+146↓p
ROM:0585                 lhld    word_209F
ROM:0588                 lda     word_2099
ROM:058B                 cmp     l
ROM:058C                 jnz     loc_594
ROM:058F                 lda     word_2099+1
ROM:0592                 cmp     h
ROM:0593                 rz
ROM:0594
ROM:0594 loc_594:                                ; CODE XREF: sub_552+3A↑j
ROM:0594                 mvi     l, 2
ROM:0596                 call    sub_3F2
ROM:0599                 call    sub_40E
ROM:059C                 lhld    word_209B
ROM:059F                 inx     h
ROM:05A0                 call    sub_520
ROM:05A3                 lda     RSP_PKT_BUF.SWITCHES ; RSP command/response packet buffer
ROM:05A6                 ani     10h
ROM:05A8                 jnz     loc_5BA
ROM:05AB                 lxi     h, byte_20AF
ROM:05AE                 inr     m
ROM:05AF                 mvi     a, 1
ROM:05B1                 sta     word_20B4
ROM:05B4                 jnz     loc_557
ROM:05B7                 jmp     loc_5C2
ROM:05BA ; ---------------------------------------------------------------------------
ROM:05BA
ROM:05BA loc_5BA:                                ; CODE XREF: sub_552+56↑j
ROM:05BA                 mvi     a, 80h
ROM:05BC                 sta     RSP_PKT_BUF.DATA13+3 ; RSP command/response packet buffer
ROM:05BF                 call    sub_264
ROM:05C2
ROM:05C2 loc_5C2:                                ; CODE XREF: sub_552+65↑j
ROM:05C2                 mvi     a, 0EFh
ROM:05C4                 jmp     loc_775
ROM:05C7 ; ---------------------------------------------------------------------------
ROM:05C7
ROM:05C7 RSP_WRITE:                              ; DATA XREF: ROM:00DE↑o
ROM:05C7                 call    loc_6FA         ; RSP Write Opcode
ROM:05CA
ROM:05CA loc_5CA:                                ; CODE XREF: sub_552+152↓j
ROM:05CA                 xra     a
ROM:05CB                 sta     byte_20A2
ROM:05CE                 call    sub_54C
ROM:05D1                 push    d
ROM:05D2
ROM:05D2 loc_5D2:                                ; CODE XREF: sub_552+8B↓j
ROM:05D2                 call    sub_318
ROM:05D5                 call    sub_F0
ROM:05D8                 lda     byte_20A2
ROM:05DB                 ani     80h
ROM:05DD                 jz      loc_5D2
ROM:05E0                 lda     RSP_PKT_BUF.FLAG ; RSP command/response packet buffer
ROM:05E3                 cpi     1
ROM:05E5                 jnz     loc_10
ROM:05E8                 pop     d
ROM:05E9
ROM:05E9 loc_5E9:                                ; CODE XREF: sub_552+171↓j
ROM:05E9                 call    sub_2A4
ROM:05EC                 push    h
ROM:05ED                 push    d
ROM:05EE                 lda     RSP_PKT_BUF.MBC ; RSP command/response packet buffer
ROM:05F1                 sui     80h
ROM:05F3                 jz      loc_601
ROM:05F6                 mov     c, a
ROM:05F7                 lxi     h, 2098h
ROM:05FA                 xra     a
ROM:05FB
ROM:05FB loc_5FB:                                ; CODE XREF: sub_552+AC↓j
ROM:05FB                 mov     m, a
ROM:05FC                 dcx     h
ROM:05FD                 inr     c
ROM:05FE                 jnz     loc_5FB
ROM:0601
ROM:0601 loc_601:                                ; CODE XREF: sub_552+A1↑j
ROM:0601                 call    sub_535
ROM:0604                 lhld    word_209F
ROM:0607                 shld    word_2099
ROM:060A                 lxi     h, 0
ROM:060D                 shld    RSP_PKT_BUF.CHECKSUM ; RSP command/response packet buffer
ROM:0610                 shld    RSP_PKT_BUF.DATA13 ; RSP command/response packet buffer
ROM:0613                 lxi     h, 8000h
ROM:0616                 shld    RSP_PKT_BUF.DATA13+2 ; RSP command/response packet buffer
ROM:0619                 lda     byte_20AE
ROM:061C                 out     IO_8155_PB      ; Output port
ROM:061E                 in      IO_8155_PA      ; Input port
ROM:0620                 ani     1
ROM:0622                 mvi     a, 0F5h
ROM:0624                 jnz     loc_775
ROM:0627                 pop     d
ROM:0628                 pop     h
ROM:0629                 call    sub_324
ROM:062C                 di
ROM:062D                 mvi     a, 0Fh
ROM:062F                 call    sub_3FB
ROM:0632                 lxi     h, RSP_PKT_BUF.CHECKSUM ; RSP command/response packet buffer
ROM:0635                 mvi     b, 86h
ROM:0637                 mvi     d, 8Ah
ROM:0639                 lda     byte_20AE
ROM:063C                 ori     2
ROM:063E                 mov     e, a
ROM:063F                 ani     RUN_L|WRT_ENB_H|REVERSE_H|SEL_DRV_B_L|SEL_TRK_0_L|GAIN_REDUCE_L|IPS30_L ; 8155 Output Port B Bit Definitions
ROM:0641                 out     IO_8155_PB      ; Output port
ROM:0643                 mvi     c, 8
ROM:0645
ROM:0645 loc_645:                                ; CODE XREF: sub_552+10D↓j
ROM:0645                                         ; sub_552+11C↓j
ROM:0645                 mvi     a, 0FFh
ROM:0647                 sim
ROM:0648                 mov     a, m
ROM:0649                 rrc
ROM:064A                 mov     m, a
ROM:064B                 ori     7Fh
ROM:064D                 sim
ROM:064E                 dcr     c
ROM:064F                 jz      loc_662
ROM:0652                 dcr     b
ROM:0653                 jnz     loc_671
ROM:0656                 mov     a, e
ROM:0657                 out     IO_8155_PB      ; Output port
ROM:0659                 nop
ROM:065A
ROM:065A loc_65A:                                ; CODE XREF: sub_552+120↓j
ROM:065A                 mvi     a, 7Fh
ROM:065C                 sim
ROM:065D                 nop
ROM:065E                 nop
ROM:065F                 jmp     loc_645
ROM:0662 ; ---------------------------------------------------------------------------
ROM:0662
ROM:0662 loc_662:                                ; CODE XREF: sub_552+FD↑j
ROM:0662                 dcr     d
ROM:0663                 jz      loc_675
ROM:0666                 inx     h
ROM:0667                 mvi     a, 7Fh
ROM:0669                 mvi     c, 8
ROM:066B                 sim
ROM:066C                 dcr     b
ROM:066D                 nop
ROM:066E                 jmp     loc_645
ROM:0671 ; ---------------------------------------------------------------------------
ROM:0671
ROM:0671 loc_671:                                ; CODE XREF: sub_552+101↑j
ROM:0671                 inr     b
ROM:0672                 jmp     loc_65A
ROM:0675 ; ---------------------------------------------------------------------------
ROM:0675
ROM:0675 loc_675:                                ; CODE XREF: sub_552+111↑j
ROM:0675                 lda     byte_20AE
ROM:0678                 out     IO_8155_PB      ; Output port
ROM:067A                 mvi     a, 0Dh
ROM:067C                 sim
ROM:067D                 ei
ROM:067E                 call    sub_40E
ROM:0681                 mvi     a, 0FFh
ROM:0683                 sta     byte_20AF
ROM:0686                 call    loc_585
ROM:0689                 lhld    RSP_PKT_BUF.FLAG ; RSP command/response packet buffer
ROM:068C                 shld    word_209F
ROM:068F                 call    loc_53B
ROM:0692                 lhld    UART_CKSUM      ; UART state machine checksum
ROM:0695                 shld    word_2099
ROM:0698                 call    loc_585
ROM:069B                 lda     RSP_PKT_BUF.MBC ; RSP command/response packet buffer
ROM:069E                 call    loc_6EF
ROM:06A1                 call    loc_6DD
ROM:06A4                 jc      loc_5CA
ROM:06A7                 lda     word_20A9
ROM:06AA                 ani     3
ROM:06AC                 lda     RSP_PKT_BUF.MOD_SUCC ; RSP command/response packet buffer
ROM:06AF                 jz      loc_6C6
ROM:06B2                 cpi     0
ROM:06B4                 jm      loc_6C6
ROM:06B7                 lxi     h, 0
ROM:06BA                 shld    RSP_PKT_BUF.FLAG ; RSP command/response packet buffer
ROM:06BD                 shld    word_20AB
ROM:06C0                 shld    UART_CKSUM      ; UART state machine checksum
ROM:06C3                 jmp     loc_5E9
ROM:06C6 ; ---------------------------------------------------------------------------
ROM:06C6
ROM:06C6 loc_6C6:                                ; CODE XREF: sub_552+15D↑j
ROM:06C6                                         ; sub_552+162↑j
ROM:06C6                 ani     1
ROM:06C8                 jz      loc_6D7
ROM:06CB                 call    loc_6FA
ROM:06CE
ROM:06CE loc_6CE:                                ; CODE XREF: sub_552+182↓j
ROM:06CE                 call    sub_552
ROM:06D1                 call    loc_6DD
ROM:06D4                 jc      loc_6CE
ROM:06D7
ROM:06D7 loc_6D7:                                ; CODE XREF: sub_552+176↑j
ROM:06D7                 call    sub_40E
ROM:06DA                 jmp     RSP_NOP         ; RSP NOP/Reserved Opcodes
ROM:06DD ; ---------------------------------------------------------------------------
ROM:06DD
ROM:06DD loc_6DD:                                ; CODE XREF: sub_552+14F↑p
ROM:06DD                                         ; sub_552+17F↑p ...
ROM:06DD                 lhld    word_20A9
ROM:06E0                 inx     h
ROM:06E1                 shld    word_20A9
ROM:06E4                 lhld    word_20AB
ROM:06E7                 lxi     d, 0FF80h
ROM:06EA                 dad     d
ROM:06EB                 shld    word_20AB
ROM:06EE                 ret
ROM:06EF ; ---------------------------------------------------------------------------
ROM:06EF
ROM:06EF loc_6EF:                                ; CODE XREF: sub_552+14C↑p
ROM:06EF                                         ; sub_552+1DC↓p ...
ROM:06EF                 lxi     h, UART_XFR_COUNT ; UART state machine transferred count
ROM:06F2                 add     m
ROM:06F3                 mov     m, a
ROM:06F4                 inx     h
ROM:06F5                 mov     a, m
ROM:06F6                 aci     0
ROM:06F8                 mov     m, a
ROM:06F9                 ret
ROM:06FA ; ---------------------------------------------------------------------------
ROM:06FA
ROM:06FA loc_6FA:                                ; CODE XREF: ROM:RSP_POS↑p
ROM:06FA                                         ; sub_552:RSP_WRITE↑p ...
ROM:06FA                 lhld    RSP_PKT_BUF.ABC ; RSP command/response packet buffer
ROM:06FD                 dcx     h
ROM:06FE                 shld    word_20AB
ROM:0701                 lhld    RSP_PKT_BUF.BLK_STAT ; RSP command/response packet buffer
ROM:0704                 lda     RSP_PKT_BUF.MOD_SUCC ; RSP command/response packet buffer
ROM:0707                 cpi     0
ROM:0709                 jm      loc_711
ROM:070C                 mov     e, l
ROM:070D                 mov     d, h
ROM:070E                 dad     d
ROM:070F                 dad     d
ROM:0710                 dad     d
ROM:0711
ROM:0711 loc_711:                                ; CODE XREF: sub_552+1B7↑j
ROM:0711                 mvi     a, 0F8h
ROM:0713                 ana     h
ROM:0714                 mvi     a, 0C9h
ROM:0716                 jnz     loc_775
ROM:0719                 shld    word_20A9
ROM:071C                 ret
ROM:071D ; ---------------------------------------------------------------------------
ROM:071D
ROM:071D RSP_READ:                               ; DATA XREF: ROM:00DC↑o
ROM:071D                 call    loc_6FA         ; RSP Read Opcode
ROM:0720
ROM:0720 loc_720:                                ; CODE XREF: sub_552+1E2↓j
ROM:0720                 call    sub_552
ROM:0723                 call    loc_6DD
ROM:0726                 jnc     loc_737
ROM:0729                 mvi     a, 80h
ROM:072B                 sta     RSP_PKT_BUF.DATA13+3 ; RSP command/response packet buffer
ROM:072E                 call    loc_6EF
ROM:0731                 call    sub_264
ROM:0734                 jmp     loc_720
ROM:0737 ; ---------------------------------------------------------------------------
ROM:0737
ROM:0737 loc_737:                                ; CODE XREF: sub_552+1D4↑j
ROM:0737                 call    sub_40E
ROM:073A                 mov     a, l
ROM:073B                 adi     81h
ROM:073D                 sta     RSP_PKT_BUF.DATA13+3 ; RSP command/response packet buffer
ROM:0740                 call    loc_6EF
ROM:0743                 call    sub_264
ROM:0746
ROM:0746 RSP_NOP:                                ; CODE XREF: ROM:02A1↑j
ROM:0746                                         ; sub_552+188↑j ...
ROM:0746                 lxi     h, 0A02h        ; RSP NOP/Reserved Opcodes
ROM:0749                 shld    RSP_PKT_BUF.FLAG ; RSP command/response packet buffer
ROM:074C                 mvi     a, 40h ; '@'
ROM:074E                 sta     RSP_PKT_BUF.OP_DATA ; RSP command/response packet buffer
ROM:0751                 lda     word_20B4
ROM:0754                 sta     RSP_PKT_BUF.MOD_SUCC ; RSP command/response packet buffer
ROM:0757                 xra     a
ROM:0758                 sta     RSP_PKT_BUF.BLK_STAT ; RSP command/response packet buffer
ROM:075B                 lda     word_20B4+1
ROM:075E                 sta     RSP_PKT_BUF.BLK_STAT+1 ; RSP command/response packet buffer
ROM:0761                 lhld    UART_XFR_COUNT  ; UART state machine transferred count
ROM:0764                 shld    RSP_PKT_BUF.ABC ; RSP command/response packet buffer
ROM:0767                 mvi     b, 5
ROM:0769                 call    sub_404
ROM:076C                 lxi     h, RSP_PKT_BUF.MBC ; RSP command/response packet buffer
ROM:076F                 call    sub_26A
ROM:0772                 jmp     loc_91
ROM:0775 ; ---------------------------------------------------------------------------
ROM:0775
ROM:0775 loc_775:                                ; CODE XREF: sub_552-48D↑j
ROM:0775                                         ; sub_2A4+E↑j ...
ROM:0775                 sta     word_20B4
ROM:0778                 mvi     a, 80h
ROM:077A                 sta     word_20B4+1
ROM:077D                 lxi     sp, STACK_TOP
ROM:0780
ROM:0780 RSP_INIT:                               ; DATA XREF: ROM:00DA↑o
ROM:0780                 call    sub_4D          ; RSP INIT Opcode
ROM:0783                 jmp     RSP_NOP         ; RSP NOP/Reserved Opcodes
ROM:0783 ; End of function sub_552
ROM:0783
ROM:0786 ; ---------------------------------------------------------------------------
ROM:0786
ROM:0786 RSP_GETSTAT:                            ; DATA XREF: ROM:00E8↑o
ROM:0786                 lda     RSP_PKT_BUF.MOD_SUCC ; RSP Get Status Opcode
ROM:0789                 ani     80h
ROM:078B                 jz      RSP_NOP         ; RSP NOP/Reserved Opcodes
ROM:078E                 lda     byte_20AD
ROM:0791                 ani     0Ch
ROM:0793                 rrc
ROM:0794                 sta     word_20B4+1
ROM:0797                 jmp     RSP_NOP         ; RSP NOP/Reserved Opcodes
ROM:079A
ROM:079A ; =============== S U B R O U T I N E =======================================
ROM:079A
ROM:079A
ROM:079A sub_79A:                                ; CODE XREF: RESET+D↑p
ROM:079A                                         ; sub_F0+27↑p ...
ROM:079A                 mvi     a, BOOT_L       ; 8155 Output Port C Bit Definitions (ALT 2 Mode)
ROM:079C                 out     IO_8155_PC      ; Output port
ROM:079E                 xra     a
ROM:079F                 sta     word_20B4
ROM:07A2                 mvi     b, 0C8h
ROM:07A4                 call    sub_404
ROM:07A7                 lxi     h, 0
ROM:07AA                 shld    word_209F
ROM:07AD                 xchg
ROM:07AE
ROM:07AE loc_7AE:                                ; CODE XREF: sub_79A+1A↓j
ROM:07AE                 call    sub_53E
ROM:07B1                 mvi     a, 8
ROM:07B3                 cmp     d
ROM:07B4                 jnz     loc_7AE
ROM:07B7                 lhld    word_209F
ROM:07BA                 inr     l
ROM:07BB                 jnz     loc_7E5
ROM:07BE                 inr     h
ROM:07BF                 jnz     loc_7E5
ROM:07C2                 lxi     h,  RSP_PKT_BUF.ABC+1 ; RSP command/response packet buffer
ROM:07C5
ROM:07C5 loc_7C5:                                ; CODE XREF: sub_79A+30↓j
ROM:07C5                 mov     m, l
ROM:07C6                 inr     l
ROM:07C7                 mvi     a, 0F0h
ROM:07C9                 cmp     l
ROM:07CA                 jnz     loc_7C5
ROM:07CD
ROM:07CD loc_7CD:                                ; CODE XREF: sub_79A+3B↓j
ROM:07CD                 dcr     l
ROM:07CE                 mov     a, m
ROM:07CF                 cmp     l
ROM:07D0                 jnz     loc_7E5
ROM:07D3                 cpi     10h
ROM:07D5                 jnz     loc_7CD
ROM:07D8                 call    sub_57
ROM:07DB                 mvi     a, BOOT_L|TP1   ; 8155 Output Port C Bit Definitions (ALT 2 Mode)
ROM:07DD                 out     IO_8155_PC      ; Output port
ROM:07DF                 xra     a
ROM:07E0                 mov     h, a
ROM:07E1                 mov     l, a
ROM:07E2                 jmp     loc_7E8
ROM:07E5 ; ---------------------------------------------------------------------------
ROM:07E5
ROM:07E5 loc_7E5:                                ; CODE XREF: sub_79A+21↑j
ROM:07E5                                         ; sub_79A+25↑j ...
ROM:07E5                 lxi     h, 80FFh
ROM:07E8
ROM:07E8 loc_7E8:                                ; CODE XREF: sub_79A+48↑j
ROM:07E8                 shld    word_20B4
ROM:07EB                 ret
ROM:07EB ; End of function sub_79A
ROM:07EB
ROM:07EC ; ---------------------------------------------------------------------------
ROM:07EC
ROM:07EC RSP_DIAG:                               ; DATA XREF: ROM:00E6↑o
ROM:07EC                 call    sub_79A         ; RSP Diagnose Opcode
ROM:07EF                 jmp     RSP_NOP         ; RSP NOP/Reserved Opcodes
ROM:07EF ; ---------------------------------------------------------------------------
ROM:07F2                 .dw 79CDh
ROM:07F4                 .db 0, 0, 0, 0, 0, 0, 0, 0, 0, 0, 0, 0
ROM:07F4 ; end of 'ROM'
ROM:07F4
RAM:2000 ; ===========================================================================
RAM:2000
RAM:2000 ; Segment type: Regular
RAM:2000                 .org 2000h
RAM:2000 XOFF_FLAG:      .block 1                ; DATA XREF: sub_49+1↑w
RAM:2000                                         ; sub_F0+2D↑w ...
RAM:2001 UART_STATE:     .block 2                ; DATA XREF: ROM:0038↑r
RAM:2001                                         ; sub_50↑w ...
RAM:2001                                         ; Pointer to current UART state machine handler
RAM:2003 UART_XFR_COUNT: .block 2                ; DATA XREF: sub_552-4B1↑w
RAM:2003                                         ; sub_552:loc_6EF↑o ...
RAM:2003                                         ; UART state machine transferred count
RAM:2005 UART_CKSUM:     .block 2                ; DATA XREF: ROM:0205↑w
RAM:2005                                         ; sub_552+140↑r ...
RAM:2005                                         ; UART state machine checksum
RAM:2007 RSP_PKT_BUF:    RSP_PKT_BUF_type <?>    ; Buffer for incoming/outgoing RSP packets
RAM:2007                                         ; DATA XREF: sub_552-49C↑r
RAM:2007                                         ; ROM:01A7↑w ...
RAM:2007                                         ; RSP command/response packet buffer
RAM:208B                 .block 1
RAM:208C                 .block 1
RAM:208D                 .block 1
RAM:208E                 .block 1
RAM:208F                 .block 1
RAM:2090                 .block 1
RAM:2091                 .block 1
RAM:2092                 .block 1
RAM:2093                 .block 1
RAM:2094                 .block 1
RAM:2095                 .block 1
RAM:2096                 .block 1
RAM:2097                 .block 1
RAM:2098                 .block 1
RAM:2099 word_2099:      .block 2                ; DATA XREF: sub_552+36↑r
RAM:2099                                         ; sub_552+B5↑w ...
RAM:209B word_209B:      .block 2                ; DATA XREF: sub_324+8C↑o
RAM:209B                                         ; sub_324+95↑o ...
RAM:209D byte_209D:      .block 1                ; DATA XREF: sub_324+92↑r
RAM:209E byte_209E:      .block 1                ; DATA XREF: sub_324+9D↑r
RAM:209F word_209F:      .block 2                ; DATA XREF: ROM:01AA↑w
RAM:209F                                         ; ROM:loc_1EE↑o ...
RAM:20A1                 .block 1
RAM:20A2 byte_20A2:      .block 1                ; DATA XREF: sub_57+14↑w
RAM:20A2                                         ; sub_552-4BA↑w ...
RAM:20A3 word_20A3:      .block 2                ; DATA XREF: sub_2A4+42↑r
RAM:20A3                                         ; sub_520+4↑o
RAM:20A5 word_20A5:      .block 2                ; DATA XREF: sub_2A4+3A↑r
RAM:20A5                                         ; sub_520+E↑o
RAM:20A7 word_20A7:      .block 2                ; DATA XREF: sub_2A4+56↑w
RAM:20A7                                         ; sub_324+8↑r ...
RAM:20A9 word_20A9:      .block 2                ; DATA XREF: sub_F0+33↑w
RAM:20A9                                         ; sub_F0+66↑r ...
RAM:20AB word_20AB:      .block 2                ; DATA XREF: sub_552+16B↑w
RAM:20AB                                         ; sub_552+192↑r ...
RAM:20AD byte_20AD:      .block 1                ; DATA XREF: sub_57+10↑w
RAM:20AD                                         ; sub_2A4+49↑r ...
RAM:20AE byte_20AE:      .block 1                ; DATA XREF: sub_2A4+4↑o
RAM:20AE                                         ; sub_324+31↑r ...
RAM:20AF byte_20AF:      .block 1                ; DATA XREF: sub_552+2↑w
RAM:20AF                                         ; sub_552+8↑r ...
RAM:20B0 byte_20B0:      .block 1                ; DATA XREF: sub_324+2↑w
RAM:20B0                                         ; sub_324:loc_340↑r ...
RAM:20B1                 .block 1
RAM:20B2                 .block 1
RAM:20B3 byte_20B3:      .block 1                ; DATA XREF: sub_2A4:loc_2E9↑w
RAM:20B3                                         ; sub_2FE+4↑o
RAM:20B4 word_20B4:      .block 2                ; DATA XREF: sub_552-4B4↑w
RAM:20B4                                         ; sub_552+5F↑w ...
RAM:20B6 byte_20B6:      .block 1                ; DATA XREF: ROM:008E↑w
RAM:20B6                                         ; sub_F0+4↑r ...
RAM:20B7                 .block 1
RAM:20B8                 .block 1
RAM:20B9                 .block 1
RAM:20BA                 .block 1
RAM:20BB                 .block 1
RAM:20BC                 .block 1
RAM:20BD                 .block 1
RAM:20BE                 .block 1
RAM:20BF                 .block 1
RAM:20C0                 .block 1
RAM:20C1                 .block 1
RAM:20C2                 .block 1
RAM:20C3                 .block 1
RAM:20C4                 .block 1
RAM:20C5                 .block 1
RAM:20C6                 .block 1
RAM:20C7                 .block 1
RAM:20C8                 .block 1
RAM:20C9                 .block 1
RAM:20CA                 .block 1
RAM:20CB                 .block 1
RAM:20CC                 .block 1
RAM:20CD                 .block 1
RAM:20CE                 .block 1
RAM:20CF                 .block 1
RAM:20D0                 .block 1
RAM:20D1                 .block 1
RAM:20D2                 .block 1
RAM:20D3                 .block 1
RAM:20D4                 .block 1
RAM:20D5                 .block 1
RAM:20D6                 .block 1
RAM:20D7                 .block 1
RAM:20D8                 .block 1
RAM:20D9                 .block 1
RAM:20DA                 .block 1
RAM:20DB                 .block 1
RAM:20DC                 .block 1
RAM:20DD                 .block 1
RAM:20DE                 .block 1
RAM:20DF                 .block 1
RAM:20E0                 .block 1
RAM:20E1                 .block 1
RAM:20E2                 .block 1
RAM:20E3                 .block 1
RAM:20E4                 .block 1
RAM:20E5                 .block 1
RAM:20E6                 .block 1
RAM:20E7                 .block 1
RAM:20E8                 .block 1
RAM:20E9                 .block 1
RAM:20EA                 .block 1
RAM:20EB                 .block 1
RAM:20EC                 .block 1
RAM:20ED                 .block 1
RAM:20EE                 .block 1
RAM:20EF                 .block 1
RAM:20F0                 .block 1
RAM:20F1                 .block 1
RAM:20F2                 .block 1
RAM:20F3                 .block 1
RAM:20F4                 .block 1
RAM:20F5                 .block 1
RAM:20F6                 .block 1
RAM:20F7                 .block 1
RAM:20F8                 .block 1
RAM:20F9                 .block 1
RAM:20FA                 .block 1
RAM:20FB                 .block 1
RAM:20FC                 .block 1
RAM:20FD                 .block 1
RAM:20FE                 .block 1
RAM:20FF STACK_TOP:      .block 1                ; DATA XREF: RESET↑o
RAM:20FF                                         ; sub_552-541↑o ...
RAM:20FF ; end of 'RAM'
RAM:20FF
RAM:20FF
RAM:20FF                 .end
